\relax 
\citation{bbquecit}
\@writefile{toc}{\contentsline {section}{\numberline {1}Introduction}{1}}
\@writefile{toc}{\contentsline {section}{\numberline {2}The Barbeque Open Source Project}{1}}
\@writefile{toc}{\contentsline {subsection}{\numberline {2.1}The FIFO RPC}{1}}
\@writefile{lof}{\contentsline {figure}{\numberline {1}{\ignorespaces Logical flow of the FIFO based RPC of Barbeque\relax }}{1}}
\newlabel{fig:bbquefifofig}{{1}{1}}
\citation{ndkurl}
\citation{ndkurl}
\@writefile{toc}{\contentsline {subsubsection}{\numberline {2.1.1}FIFO plugin}{2}}
\@writefile{toc}{\contentsline {subsubsection}{\numberline {2.1.2}RTLib}{2}}
\@writefile{toc}{\contentsline {subsubsection}{\numberline {2.1.3}FIFO details}{2}}
\@writefile{toc}{\contentsline {section}{\numberline {3}Binder}{2}}
\@writefile{lof}{\contentsline {figure}{\numberline {2}{\ignorespaces The three layers of the Binder framework\relax }}{2}}
\newlabel{fig:middleware}{{2}{2}}
\@writefile{toc}{\contentsline {subsection}{\numberline {3.1}Usage of the C++ middleware}{2}}
\@writefile{toc}{\contentsline {subsection}{\numberline {3.2}The communication model}{2}}
\@writefile{lof}{\contentsline {figure}{\numberline {3}{\ignorespaces The communication model for the Binder framework\relax }}{3}}
\newlabel{fig:binderabstract}{{3}{3}}
\@writefile{toc}{\contentsline {subsection}{\numberline {3.3}Transactions and Parcels}{3}}
\@writefile{toc}{\contentsline {section}{\numberline {4}Integration}{3}}
\@writefile{lof}{\contentsline {figure}{\numberline {4}{\ignorespaces The resulting commmunication model\relax }}{3}}
\newlabel{fig:binderbbque}{{4}{3}}
\@writefile{toc}{\contentsline {subsection}{\numberline {4.1}The common library}{3}}
\citation{mygitrepo}
\bibstyle{splncs}
\bibdata{Report}
\bibcite{bbquecit}{1}
\bibcite{ndkurl}{2}
\bibcite{mygitrepo}{3}
\@writefile{toc}{\contentsline {subsection}{\numberline {4.2}The plugin}{4}}
\@writefile{toc}{\contentsline {subsection}{\numberline {4.3}RTLib}{4}}
\@writefile{toc}{\contentsline {section}{\numberline {5}Conclusions}{4}}
